…
    intersect, setdiff, setequal, union


Attachement du package : ‘dbplyr’

L'objet suivant est masqué _par_ ‘.GlobalEnv’:

    in_schema

Les objets suivants sont masqués depuis ‘package:dplyr’:

    ident, sql

# A tibble: 3,608,306 × 6
    AFG_ID  AFF_ID AFF_ID_PARENT AFF_ID_RACINE ATL_ID AFF_DATE_RACINE    
     <dbl>   <dbl>         <dbl>         <dbl>  <dbl> <dttm>             
 1 2873264 3625658            NA       3625658     NA 2013-08-19 00:00:00
 2 2861675 3609098            NA       3609098     NA 2012-05-15 00:00:00
 3    5556    8203            NA          8203     NA 2001-01-11 00:00:00
 4 2865505 3614618            NA       3614618     NA 2013-07-26 00:00:00
 5    8195   10963            NA         10963     NA 2004-01-23 00:00:00
 6   10947   13723            NA         13723     NA 2001-10-12 00:00:00
 7   13645   16483            NA         16483     NA 2002-08-06 00:00:00
 8 2871202 3622898            NA       3622898     NA 2012-10-23 00:00:00
 9   20882   24763            NA         24763     NA 2003-09-26 00:00:00
10   23199   27523            NA         27523     NA 2003-04-30 00:00:00
# ℹ 3,608,296 more rows
…
    intersect, setdiff, setequal, union


Attachement du package : ‘dbplyr’

L'objet suivant est masqué _par_ ‘.GlobalEnv’:

    in_schema

Les objets suivants sont masqués depuis ‘package:dplyr’:

    ident, sql

# A tibble: 3,608,306 × 6
    AFG_ID  AFF_ID AFF_ID_PARENT AFF_ID_RACINE ATL_ID AFF_DATE_RACINE    
     <dbl>   <dbl>         <dbl>         <dbl>  <dbl> <dttm>             
 1 2648154 3624227       3319326       3319326      5 2012-12-18 00:00:00
 2 2597730 3604907       3540139       3252156      1 2011-12-06 00:00:00
 3 2868388 3618707            NA       3618707     NA 2013-02-14 00:00:00
 4 2663095 3610427       3476069       3339401      5 2009-02-02 00:00:00
 5   21841   26092            NA         26092     NA 2002-02-25 00:00:00
 6 2870268 3621467            NA       3621467     NA 2013-04-11 00:00:00
 7 2346078 3626987       3566354       3566354      5 2012-01-27 00:00:00
 8 2868482 3629747       3618827       3618827      5 2012-08-16 00:00:00
 9 2847191 3589066            NA       3589066     NA 2013-06-18 00:00:00
10   24399   28852            NA         28852     NA 2002-10-17 00:00:00
# ℹ 3,608,296 more rows
# A tibble: 3,608,306 × 6
    AFG_ID  AFF_ID AFF_ID_PARENT AFF_ID_RACINE ATL_ID AFF_DATE_RACINE    
     <dbl>   <dbl>         <dbl>         <dbl>  <dbl> <dttm>             
 1    6400    9072            NA          9072     NA 2002-12-10 00:00:00
 2 2757491 3839650       3567519       3466316      1 2013-04-12 00:00:00
 3    9062   11832            NA         11832     NA 2002-05-14 00:00:00
 4 2171152 3623767       2689170       2689170      5 2011-07-16 00:00:00
 5 1306741 3618247       2908138       1566151      5 2008-12-11 00:00:00
 6   26586   31152            NA         31152     NA 2003-02-07 00:00:00
 7   29200   33912            NA         33912     NA 2003-06-30 00:00:00
 8 2870295 3648607       3621498       3621498      5 2011-01-06 00:00:00
 9 2858260 3604447            NA       3604447     NA 2013-07-24 00:00:00
10   57002   66313            NA         66313     NA 2004-05-28 00:00:00
# ℹ 3,608,296 more rows
# A tibble: 3,608,306 × 6
    AFG_ID  AFF_ID AFF_ID_PARENT AFF_ID_RACINE ATL_ID AFF_DATE_RACINE    
     <dbl>   <dbl>         <dbl>         <dbl>  <dbl> <dttm>             
 1    1675    4242            NA          4242     NA 2001-11-15 00:00:00
 2 2866678 3616177            NA       3616177     NA 2013-03-14 00:00:00
 3 2196958 3607897       3217891       2721046      5 2011-05-06 00:00:00
 4 2862698 3610657            NA       3610657     NA 2013-07-31 00:00:00
 5 2876444 3629977            NA       3629977     NA 2013-03-06 00:00:00
 6   17654   20802            NA         20802     NA 2003-01-09 00:00:00
 7 2870412 3621697            NA       3621697     NA 2013-02-21 00:00:00
 8   24623   29082            NA         29082     NA 1996-05-14 00:00:00
 9 2858772 3605137            NA       3605137     NA 2013-07-26 00:00:00
10 2868553 3618937            NA       3618937     NA 2013-08-01 00:00:00
# ℹ 3,608,296 more rows
# A tibble: 3,608,306 × 6
    AFG_ID  AFF_ID AFF_ID_PARENT AFF_ID_RACINE ATL_ID AFF_DATE_RACINE    
     <dbl>   <dbl>         <dbl>         <dbl>  <dbl> <dttm>             
 1    6315    8985            NA          8985     NA 2003-04-28 00:00:00
 2    8975   11745            NA         11745     NA 2002-02-28 00:00:00
 3 2860165 3607120            NA       3607120     NA 2013-07-30 00:00:00
 4 3047615 4426492       3859770       3859770      1 2014-02-24 10:23:26
 5 1939718 3612640       2393945       2393945      5 2010-11-26 00:00:00
 6 2869886 3620920            NA       3620920     NA 2013-08-12 00:00:00
 7 3688025 4702376            NA       4702376     NA 2016-01-18 00:00:00
 8   23890   28305            NA         28305     NA 2003-07-11 00:00:00
 9 2833174 3615400       3600808       3569364      1 2013-06-26 00:00:00
10 2889882 3648520            NA       3648520     NA 2013-08-05 00:00:00
# ℹ 3,608,296 more rows
# A tibble: 3,608,306 × 6
    AFG_ID  AFF_ID AFF_ID_PARENT AFF_ID_RACINE ATL_ID AFF_DATE_RACINE    
     <dbl>   <dbl>         <dbl>         <dbl>  <dbl> <dttm>             
 1     918    3460            NA          3460     NA 2003-05-13 00:00:00
 2 2860161 3607115            NA       3607115     NA 2013-07-30 00:00:00
 3 2866105 3615395            NA       3615395     NA 2013-08-05 00:00:00
 4 2867984 3618155            NA       3618155     NA 2013-08-08 00:00:00
 5    8970   11740            NA         11740     NA 2002-02-19 00:00:00
 6   11687   14500            NA         14500     NA 2003-07-07 00:00:00
 7 2875912 3629195            NA       3629195     NA 2013-06-13 00:00:00
 8 3221495 4093362            NA       4093362     NA 2014-09-04 17:28:11
 9 2961438 3743677            NA       3743677     NA 2013-11-22 00:00:00
10   16921   20020            NA         20020     NA 2002-01-28 00:00:00
# ℹ 3,608,296 more rows
# A tibble: 3,608,306 × 6
    AFG_ID  AFF_ID AFF_ID_PARENT AFF_ID_RACINE ATL_ID AFF_DATE_RACINE    
     <dbl>   <dbl>         <dbl>         <dbl>  <dbl> <dttm>             
 1     918    3460            NA          3460     NA 2003-05-13 00:00:00
 2 2860161 3607115            NA       3607115     NA 2013-07-30 00:00:00
 3 2866105 3615395            NA       3615395     NA 2013-08-05 00:00:00
 4 2867984 3618155            NA       3618155     NA 2013-08-08 00:00:00
 5    8970   11740            NA         11740     NA 2002-02-19 00:00:00
 6   11687   14500            NA         14500     NA 2003-07-07 00:00:00
 7 2875912 3629195            NA       3629195     NA 2013-06-13 00:00:00
 8 3221495 4093362            NA       4093362     NA 2014-09-04 17:28:11
 9 2961438 3743677            NA       3743677     NA 2013-11-22 00:00:00
10   16921   20020            NA         20020     NA 2002-01-28 00:00:00
# ℹ 3,608,296 more rows
# A tibble: 3,608,306 × 6
    AFG_ID  AFF_ID AFF_ID_PARENT AFF_ID_RACINE ATL_ID AFF_DATE_RACINE    
     <dbl>   <dbl>         <dbl>         <dbl>  <dbl> <dttm>             
 1     918    3460            NA          3460     NA 2003-05-13 00:00:00
 2 2860161 3607115            NA       3607115     NA 2013-07-30 00:00:00
 3 2866105 3615395            NA       3615395     NA 2013-08-05 00:00:00
 4 2867984 3618155            NA       3618155     NA 2013-08-08 00:00:00
 5    8970   11740            NA         11740     NA 2002-02-19 00:00:00
 6   11687   14500            NA         14500     NA 2003-07-07 00:00:00
 7 2875912 3629195            NA       3629195     NA 2013-06-13 00:00:00
 8 3221495 4093362            NA       4093362     NA 2014-09-04 17:28:11
 9 2961438 3743677            NA       3743677     NA 2013-11-22 00:00:00
10   16921   20020            NA         20020     NA 2002-01-28 00:00:00
# ℹ 3,608,296 more rows
# A tibble: 3,608,306 × 6
    AFG_ID  AFF_ID AFF_ID_PARENT AFF_ID_RACINE ATL_ID AFF_DATE_RACINE    
     <dbl>   <dbl>         <dbl>         <dbl>  <dbl> <dttm>             
 1     918    3460            NA          3460     NA 2003-05-13 00:00:00
 2 2860161 3607115            NA       3607115     NA 2013-07-30 00:00:00
 3 2866105 3615395            NA       3615395     NA 2013-08-05 00:00:00
 4 2867984 3618155            NA       3618155     NA 2013-08-08 00:00:00
 5    8970   11740            NA         11740     NA 2002-02-19 00:00:00
 6   11687   14500            NA         14500     NA 2003-07-07 00:00:00
 7 2875912 3629195            NA       3629195     NA 2013-06-13 00:00:00
 8 3221495 4093362            NA       4093362     NA 2014-09-04 17:28:11
 9 2961438 3743677            NA       3743677     NA 2013-11-22 00:00:00
10   16921   20020            NA         20020     NA 2002-01-28 00:00:00
# ℹ 3,608,296 more rows
Erreur : RStudio not running
Exécution arrêtée
# A tibble: 3,608,306 × 6
    AFG_ID  AFF_ID AFF_ID_PARENT AFF_ID_RACINE ATL_ID AFF_DATE_RACINE    
     <dbl>   <dbl>         <dbl>         <dbl>  <dbl> <dttm>             
 1   11573   14367            NA         14367     NA 2002-05-14 00:00:00
 2 2875806 3629062            NA       3629062     NA 2013-08-23 00:00:00
 3 2871649 3623542            NA       3623542     NA 2013-04-26 00:00:00
 4   16790   19887            NA         19887     NA 2003-09-03 00:00:00
 5   28975   33687            NA         33687     NA 2001-06-04 00:00:00
 6   54961   64047            NA         64047     NA 2002-12-18 00:00:00
 7   52391   61287            NA         61287     NA 1995-09-29 00:00:00
 8   45020   53007            NA         53007     NA 2003-05-16 00:00:00
 9 2912097 3678023            NA       3678023     NA 2013-10-02 00:00:00
10 2907891 3672503            NA       3672503     NA 2011-06-22 00:00:00
# ℹ 3,608,296 more rows
…
    intersect, setdiff, setequal, union


Attachement du package : ‘dbplyr’

L'objet suivant est masqué _par_ ‘.GlobalEnv’:

    in_schema

Les objets suivants sont masqués depuis ‘package:dplyr’:

    ident, sql

# A tibble: 3,608,306 × 6
    AFG_ID  AFF_ID AFF_ID_PARENT AFF_ID_RACINE ATL_ID AFF_DATE_RACINE    
     <dbl>   <dbl>         <dbl>         <dbl>  <dbl> <dttm>             
 1     751    3281            NA          3281     NA 2003-03-17 00:00:00
 2    3423    6041            NA          6041     NA 2003-04-24 00:00:00
 3 2375484 3620736       3603185       2955607      5 2011-01-12 00:00:00
 4 2860031 3606936            NA       3606936     NA 2013-07-30 00:00:00
 5 2864008 3612456            NA       3612456     NA 2013-07-25 00:00:00
 6    6143    8801            NA          8801     NA 2003-11-04 00:00:00
 7 3042604 4426308       3852981       3852981      5 2010-10-14 00:00:00
 8   28929   33641            NA         33641     NA 2003-04-09 00:00:00
 9 2692403 3664896       3379103       3379103      1 2012-07-04 00:00:00
10   52345   61241            NA         61241     NA 2003-10-17 00:00:00
# ℹ 3,608,296 more rows
# A tibble: 3,608,306 × 6
    AFG_ID  AFF_ID AFF_ID_PARENT AFF_ID_RACINE ATL_ID AFF_DATE_RACINE    
     <dbl>   <dbl>         <dbl>         <dbl>  <dbl> <dttm>             
 1 1211165 3607304       1444578       1444578      5 2008-08-21 00:00:00
 2    3787    6409            NA          6409     NA 2003-10-03 00:00:00
 3    6489    9169            NA          9169     NA 2003-05-23 00:00:00
 4 3162814 4014230            NA       4014230     NA 2012-06-08 00:00:00
 5 2770692 3610064       3484305       3484305      5 2013-04-24 00:00:00
 6 2961601 3743866            NA       3743866     NA 2007-04-06 00:00:00
 7   24050   28489            NA         28489     NA 2003-09-29 00:00:00
 8 2843248 3708705       3583681       3583681      1 2012-12-14 00:00:00
 9 2866243 3615584            NA       3615584     NA 2013-08-06 00:00:00
10 2733781 3672825       3434357       3434329      1 2011-05-16 00:00:00
# ℹ 3,608,296 more rows
# A tibble: 3,608,306 × 6
    AFG_ID  AFF_ID AFF_ID_PARENT AFF_ID_RACINE ATL_ID AFF_DATE_RACINE    
     <dbl>   <dbl>         <dbl>         <dbl>  <dbl> <dttm>             
 1 2869923 3620961            NA       3620961     NA 2010-10-22 00:00:00
 2    6355    9026            NA          9026     NA 2003-11-19 00:00:00
 3 3029543 3869245       3835723       3835723      1 2014-02-06 00:00:00
 4 2804788 3637521       3530807       3530807      5 2011-06-26 00:00:00
 5 2335220 3623721       2901624       2901624      5 2011-10-25 00:00:00
 6 3477115 4426533            NA       4426533     NA 2015-05-04 00:00:00
 7   19304   22826            NA         22826     NA 2003-02-18 00:00:00
 8   23925   28346            NA         28346     NA 2003-03-21 00:00:00
 9   29154   33866            NA         33866     NA 2003-05-02 00:00:00
10   55131   64226            NA         64226     NA 2003-03-26 00:00:00
# ℹ 3,608,296 more rows
…
    intersect, setdiff, setequal, union


Attachement du package : ‘dbplyr’

L'objet suivant est masqué _par_ ‘.GlobalEnv’:

    in_schema

Les objets suivants sont masqués depuis ‘package:dplyr’:

    ident, sql

# A tibble: 3,608,306 × 6
    AFG_ID  AFF_ID AFF_ID_PARENT AFF_ID_RACINE ATL_ID AFF_DATE_RACINE    
     <dbl>   <dbl>         <dbl>         <dbl>  <dbl> <dttm>             
 1    1454    4017            NA          4017     NA 2002-11-18 00:00:00
 2 2872193 3624232            NA       3624232     NA 2008-10-08 00:00:00
 3    9526   12297            NA         12297     NA 2003-02-26 00:00:00
 4 2864544 3613192            NA       3613192     NA 2012-02-01 09:40:30
 5 2789721 4176000       3551868       3510702      1 2013-05-17 00:00:00
 6 2874295 3626992            NA       3626992     NA 2013-08-20 00:00:00
 7   24404   28857            NA         28857     NA 1991-07-12 00:00:00
 8   48017   56457            NA         56457     NA 2004-05-06 00:00:00
 9   55628   64737            NA         64737     NA 2004-03-09 00:00:00
10 2383659 3673193       2966767       2966767      5 2012-03-07 00:00:00
# ℹ 3,608,296 more rows
# A tibble: 3,608,306 × 6
    AFG_ID  AFF_ID AFF_ID_PARENT AFF_ID_RACINE ATL_ID AFF_DATE_RACINE    
     <dbl>   <dbl>         <dbl>         <dbl>  <dbl> <dttm>             
 1 2776437 3609926       3492193       3492193      5 2010-05-06 00:00:00
 2 2866143 3615446            NA       3615446     NA 2013-06-20 00:00:00
 3    3653    6271            NA          6271     NA 2003-08-18 00:00:00
 4    6359    9031            NA          9031     NA 2003-10-27 00:00:00
 5 2911785 3839609       3677618       3677618      1 2013-10-02 00:00:00
 6    9021   11791            NA         11791     NA 2003-05-06 00:00:00
 7 2869927 3620966            NA       3620966     NA 2013-08-13 14:59:57
 8 2860192 3607166            NA       3607166     NA 2013-05-28 00:00:00
 9   14366   17311            NA         17311     NA 2003-10-24 00:00:00
10   16965   20071            NA         20071     NA 2003-03-11 00:00:00
# ℹ 3,608,296 more rows
# A tibble: 3,608,306 × 6
    AFG_ID  AFF_ID AFF_ID_PARENT AFF_ID_RACINE ATL_ID AFF_DATE_RACINE    
     <dbl>   <dbl>         <dbl>         <dbl>  <dbl> <dttm>             
 1 2870149 3621283            NA       3621283     NA 2012-09-21 00:00:00
 2    9338   12108            NA         12108     NA 2003-02-28 00:00:00
 3   12047   14868            NA         14868     NA 2004-01-22 00:00:00
 4 3688311 4702739            NA       4702739     NA 2012-11-19 00:00:00
 5 2926867 3708884       3697546       3697546      5 2010-09-27 00:00:00
 6 2862424 3610243            NA       3610243     NA 2013-08-01 00:00:00
 7 2874143 3626803            NA       3626803     NA 2013-06-26 00:00:00
 8   40831   47988            NA         47988     NA 2003-04-02 00:00:00
 9 2937438 3711644            NA       3711644     NA 2013-10-28 00:00:00
10 2929140 3700604            NA       3700604     NA 2013-06-26 17:00:32
# ℹ 3,608,296 more rows
…
    intersect, setdiff, setequal, union


Attachement du package : ‘dbplyr’

L'objet suivant est masqué _par_ ‘.GlobalEnv’:

    in_schema

Les objets suivants sont masqués depuis ‘package:dplyr’:

    ident, sql

# A tibble: 3,608,306 × 6
    AFG_ID  AFF_ID AFF_ID_PARENT AFF_ID_RACINE ATL_ID AFF_DATE_RACINE    
     <dbl>   <dbl>         <dbl>         <dbl>  <dbl> <dttm>             
 1    1319    3879            NA          3879     NA 2003-03-19 00:00:00
 2    4008    6639            NA          6639     NA 2003-09-25 00:00:00
 3    6707    9399            NA          9399     NA 2003-09-03 00:00:00
 4 2870172 3621334            NA       3621334     NA 2013-08-13 00:00:00
 5    9389   12159            NA         12159     NA 2002-07-16 00:00:00
 6 2872086 3624094            NA       3624094     NA 2013-08-16 00:00:00
 7 2745055 3604774       3449577       3449577      1 2013-02-05 00:00:00
 8 2876210 3629614            NA       3629614     NA 2013-09-04 00:00:00
 9   24272   28719            NA         28719     NA 2003-10-02 00:00:00
10 2874188 3626854            NA       3626854     NA 2013-07-11 00:00:00
# ℹ 3,608,296 more rows
# A tibble: 3,608,306 × 6
    AFG_ID  AFF_ID AFF_ID_PARENT AFF_ID_RACINE ATL_ID AFF_DATE_RACINE    
     <dbl>   <dbl>         <dbl>         <dbl>  <dbl> <dttm>             
 1 2869923 3620961            NA       3620961     NA 2010-10-22 00:00:00
 2    6355    9026            NA          9026     NA 2003-11-19 00:00:00
 3 3029543 3869245       3835723       3835723      1 2014-02-06 00:00:00
 4 2804788 3637521       3530807       3530807      5 2011-06-26 00:00:00
 5 2335220 3623721       2901624       2901624      5 2011-10-25 00:00:00
 6 3477115 4426533            NA       4426533     NA 2015-05-04 00:00:00
 7   19304   22826            NA         22826     NA 2003-02-18 00:00:00
 8   23925   28346            NA         28346     NA 2003-03-21 00:00:00
 9   29154   33866            NA         33866     NA 2003-05-02 00:00:00
10   55131   64226            NA         64226     NA 2003-03-26 00:00:00
# ℹ 3,608,296 more rows
# A tibble: 3,608,306 × 6
    AFG_ID  AFF_ID AFF_ID_PARENT AFF_ID_RACINE ATL_ID AFF_DATE_RACINE    
     <dbl>   <dbl>         <dbl>         <dbl>  <dbl> <dttm>             
 1     237    2729            NA          2729     NA 2002-04-23 00:00:00
 2    8241   11009            NA         11009     NA 2000-11-14 00:00:00
 3 2865561 3614664            NA       3614664     NA 2013-08-01 00:00:00
 4 2861701 3609144            NA       3609144     NA 2013-07-29 00:00:00
 5 2792570 3617424       3514550       3514550      5 2013-05-22 00:00:00
 6 2627373 3645024       3486695       3291575      1 2012-11-28 00:00:00
 7 2873301 3625704            NA       3625704     NA 2013-08-19 00:00:00
 8 2869374 3620184            NA       3620184     NA 2012-09-18 00:00:00
 9   25818   30329            NA         30329     NA 2003-07-30 00:00:00
10   28377   33089            NA         33089     NA 2002-06-26 00:00:00
# ℹ 3,608,296 more rows
…
